module gitlab.cern.ch/bnl-omega-go/io

go 1.19

replace gitlab.cern.ch/bnl-omega-go/io/writers => ./Writers


require (
	git.sr.ht/~sbinet/gg v0.3.1 // indirect
	github.com/ajstarks/svgo v0.0.0-20211024235047-1546f124cd8b // indirect
	github.com/campoy/embedmd v1.0.0 // indirect
	github.com/go-fonts/liberation v0.2.0 // indirect
	github.com/go-latex/latex v0.0.0-20210823091927-c0d11ff05a81 // indirect
	github.com/go-mmap/mmap v0.6.0 // indirect
	github.com/go-pdf/fpdf v0.6.0 // indirect
	github.com/golang/freetype v0.0.0-20170609003504-e2365dfdc4a0 // indirect
	github.com/gonuts/binary v0.2.0 // indirect
	github.com/hashicorp/go-uuid v1.0.3 // indirect
	github.com/klauspost/compress v1.15.9 // indirect
	github.com/pierrec/lz4/v4 v4.1.15 // indirect
	github.com/pierrec/xxHash v0.1.5 // indirect
	github.com/pmezard/go-difflib v1.0.0 // indirect
	github.com/stretchr/testify v1.7.1 // indirect
	github.com/ulikunitz/xz v0.5.10 // indirect
	go-hep.org/x/hep v0.32.1 // indirect
	golang.org/x/exp v0.0.0-20220827204233-334a2380cb91 // indirect
	golang.org/x/image v0.0.0-20220902085622-e7cb96979f69 // indirect
	golang.org/x/mod v0.6.0-dev.0.20220419223038-86c51ed26bb4 // indirect
	golang.org/x/sync v0.0.0-20220819030929-7fc1605a5dde // indirect
	golang.org/x/sys v0.0.0-20220829200755-d48e67d00261 // indirect
	golang.org/x/text v0.3.7 // indirect
	golang.org/x/tools v0.1.12 // indirect
	gonum.org/v1/gonum v0.12.0 // indirect
	gonum.org/v1/plot v0.12.0 // indirect
	gopkg.in/yaml.v3 v3.0.1 // indirect
)
